<?xml version="1.0" encoding="UTF-8" standalone="no"?>
<!-- Created with Inkscape (http://www.inkscape.org/) -->
<svg
    xmlns:inkscape="http://www.inkscape.org/namespaces/inkscape"
    xmlns:rdf="http://www.w3.org/1999/02/22-rdf-syntax-ns#"
    xmlns="http://www.w3.org/2000/svg"
    xmlns:sodipodi="http://sodipodi.sourceforge.net/DTD/sodipodi-0.dtd"
    xmlns:cc="http://creativecommons.org/ns#"
    xmlns:xlink="http://www.w3.org/1999/xlink"
    xmlns:dc="http://purl.org/dc/elements/1.1/"
    xmlns:svg="http://www.w3.org/2000/svg"
    xmlns:ns1="http://sozi.baierouge.fr"
    id="svg2"
    sodipodi:docname="New document 1"
    viewBox="0 0 241.69 179.54"
    version="1.1"
    inkscape:version="0.48.4 r9939"
  >
  <defs
      id="defs4"
    >
    <linearGradient
        id="linearGradient4105"
      >
      <stop
          id="stop4107"
          style="stop-color:#ffffff"
          offset="0"
      />
      <stop
          id="stop4109"
          style="stop-color:#a3bcdf"
          offset="1"
      />
    </linearGradient
    >
    <radialGradient
        id="radialGradient4155"
        xlink:href="#linearGradient4105"
        gradientUnits="userSpaceOnUse"
        cy="56.972"
        cx="902.38"
        gradientTransform="matrix(1.7317 0 0 1.5417 -701.48 229.39)"
        r="100.84"
        inkscape:collect="always"
    />
    <radialGradient
        id="radialGradient4163"
        xlink:href="#linearGradient4105"
        gradientUnits="userSpaceOnUse"
        cy="350.98"
        cx="969.51"
        gradientTransform="matrix(1.0262 0 0 .69993 -25.417 114.98)"
        r="55.177"
        inkscape:collect="always"
    />
  </defs
  >
  <sodipodi:namedview
      id="base"
      fit-margin-left="0"
      inkscape:zoom="0.35"
      borderopacity="1.0"
      inkscape:current-layer="layer1"
      inkscape:cx="897.84652"
      inkscape:window-y="19"
      inkscape:window-maximized="0"
      showgrid="false"
      fit-margin-right="0"
      showguides="true"
      bordercolor="#666666"
      inkscape:window-x="396"
      inkscape:guide-bbox="true"
      fit-margin-bottom="0"
      inkscape:window-width="1524"
      inkscape:pageopacity="0.0"
      inkscape:pageshadow="2"
      pagecolor="#ffffff"
      inkscape:cy="-208.73566"
      inkscape:document-units="px"
      inkscape:window-height="1181"
      fit-margin-top="0"
  />
  <g
      id="layer1"
      inkscape:label="Layer 1"
      inkscape:groupmode="layer"
      transform="translate(-792.27 -240.72)"
    >
    <g
        id="g4135"
      >
      <path
          id="path3276"
          d="m992.44 336.5c0 25.19 0.744 38.43-16.082 55.343-17.956 18.049-54.385 26.8-82.49 26.8-28.847 0-72.026 2.5243-90.683-15.744-14.564-14.261-7.8887-41.919-7.8887-66.398 0-52.073 44.132-94.286 98.571-94.286 54.44 0 98.571 42.213 98.571 94.286z"
          sodipodi:nodetypes="sssssss"
          style="stroke-linejoin:round;stroke:#253940;stroke-linecap:round;stroke-width:3;fill:url(#radialGradient4155)"
          inkscape:connector-curvature="0"
      />
      <path
          id="path4051"
          d="m996.9 358.82c19.815-2.867 27.3 26.569 27.143 47.321-24.451-3.7426-41.974-5.112-43.393 9.2857-16.129-16.499 4.0938-54.187 16.25-56.607z"
          sodipodi:nodetypes="cccc"
          style="fill:#6d91c0"
          inkscape:connector-curvature="0"
      />
      <path
          id="path4053"
          sodipodi:nodetypes="czcczzccc"
          style="stroke-linejoin:round;stroke:#253940;stroke-linecap:round;stroke-width:3;fill:url(#radialGradient4163)"
          inkscape:connector-curvature="0"
          d="m979.99 416.09c-0.099-29.244 9.8223-52.511 22.449-54.508 12.627-1.9976 20.83 20.196 20.673 44.997l9.3602-1.6552c-9.603-19.895-5.3231-43.308-21.309-53.255-15.986-9.9473-31.717-6.4144-53.903-2.4759s-34.037 53.948-31.894 65.019l45.269 3.2705z"
      />
      <path
          id="path4055"
          d="m969.22 411.14c1.6736-36.429 15.692-51.786 16.428-51.786"
          sodipodi:nodetypes="cc"
          style="stroke-linejoin:round;stroke:#253940;stroke-linecap:round;stroke-width:3;fill:none"
          inkscape:connector-curvature="0"
      />
      <path
          id="path4057"
          d="m989.22 356.85c4.0399-3.944 9.4201-5.2074 15.357-5.3571"
          sodipodi:nodetypes="cc"
          style="stroke-linejoin:round;stroke:#253940;stroke-linecap:round;stroke-width:3;fill:none"
          inkscape:connector-curvature="0"
      />
      <path
          id="path4059"
          d="m813.87 294.35c16.428 7.5 35.714 7.8572 35.714 7.8572"
          style="stroke-linejoin:round;stroke:#253940;stroke-linecap:round;stroke-width:3;fill:none"
          inkscape:connector-curvature="0"
      />
      <path
          id="path4061"
          d="m867.44 302.93c17.857 7.8571 49.286-0.35714 49.286-0.35714"
          style="stroke-linejoin:round;stroke:#253940;stroke-linecap:round;stroke-width:3;fill:none"
          inkscape:connector-curvature="0"
      />
      <path
          id="path4063"
          d="m968.51 289c-25.357 13.571-28.214 12.143-28.214 12.143"
          style="stroke-linejoin:round;stroke:#253940;stroke-linecap:round;stroke-width:3;fill:none"
          inkscape:connector-curvature="0"
      />
      <path
          id="path4065"
          d="m939.22 264c-25.357 6.0714-34.286 6.0714-34.286 6.0714"
          style="stroke-linejoin:round;stroke:#253940;stroke-linecap:round;stroke-width:3;fill:none"
          inkscape:connector-curvature="0"
      />
      <path
          id="path4067"
          d="m853.51 265.07c28.929 8.5714 31.786 7.1429 31.786 7.1429"
          style="stroke-linejoin:round;stroke:#253940;stroke-linecap:round;stroke-width:3;fill:none"
          inkscape:connector-curvature="0"
      />
      <path
          id="path4069"
          d="m870.65 280.78c-3.2143 9.6429-4.2857 17.857-4.2857 17.857"
          style="stroke-linejoin:round;stroke:#253940;stroke-linecap:round;stroke-width:3;fill:none"
          inkscape:connector-curvature="0"
      />
      <path
          id="path4071"
          d="m926.01 278.28c11.072 16.786 12.857 18.571 12.857 18.571"
          style="stroke-linejoin:round;stroke:#253940;stroke-linecap:round;stroke-width:3;fill:none"
          inkscape:connector-curvature="0"
      />
      <path
          id="path4073"
          d="m881.72 316.14c0.7143 18.929 0.7143 19.643 0.7143 19.643"
          style="stroke-linejoin:round;stroke:#253940;stroke-linecap:round;stroke-width:3;fill:none"
          inkscape:connector-curvature="0"
      />
      <path
          id="path4075"
          d="m865.3 341.14c-7.5 19.286-5.3571 27.143-5.3571 27.143"
          style="stroke-linejoin:round;stroke:#253940;stroke-linecap:round;stroke-width:3;fill:none"
          inkscape:connector-curvature="0"
      />
      <path
          id="path4077"
          d="m829.94 305.07c-3.2143 9.2857-5.7143 15.714-5.7143 15.714-9.4756 3.1812-15.762-1.0788-22.5-4.2857"
          sodipodi:nodetypes="ccc"
          style="stroke-linejoin:round;stroke:#253940;stroke-linecap:round;stroke-width:3;fill:none"
          inkscape:connector-curvature="0"
      />
      <path
          id="path4079"
          d="m920.65 361.85c-1.4286-16.429-1.0714-23.929-1.0714-23.929 1.4882 1.7588 53.046-2.9914 55.714-7.5"
          sodipodi:nodetypes="ccc"
          style="stroke-linejoin:round;stroke:#253940;stroke-linecap:round;stroke-width:3;fill:none"
          inkscape:connector-curvature="0"
      />
      <path
          id="path4081"
          d="m929.27 375.07c-21.247 5.822-33.053 5.3691-50.239 5.2773-19.196-0.10251-42.664 0.53727-56.747-7.04"
          sodipodi:nodetypes="csc"
          style="stroke-linejoin:round;stroke:#253940;stroke-linecap:round;stroke-width:3;fill:none"
          inkscape:connector-curvature="0"
      />
      <path
          id="path4083"
          d="m812.44 372.57c-2.5 19.643-2.1429 27.857-2.1429 27.857"
          style="stroke-linejoin:round;stroke:#253940;stroke-linecap:round;stroke-width:3;fill:none"
          inkscape:connector-curvature="0"
      />
    </g
    >
  </g
  >
  <metadata
    >
    <rdf:RDF
      >
      <cc:Work
        >
        <dc:format
          >image/svg+xml</dc:format
        >
        <dc:type
            rdf:resource="http://purl.org/dc/dcmitype/StillImage"
        />
        <cc:license
            rdf:resource="http://creativecommons.org/licenses/publicdomain/"
        />
        <dc:publisher
          >
          <cc:Agent
              rdf:about="http://openclipart.org/"
            >
            <dc:title
              >Openclipart</dc:title
            >
          </cc:Agent
          >
        </dc:publisher
        >
        <dc:title
          >Igloo</dc:title
        >
        <dc:date
          >2013-03-16T17:57:42</dc:date
        >
        <dc:description
          >Made for a game by http://greenplaylab.co.uk/</dc:description
        >
        <dc:source
          >https://openclipart.org/detail/176338/igloo-by-qubodup-176338</dc:source
        >
        <dc:creator
          >
          <cc:Agent
            >
            <dc:title
              >qubodup</dc:title
            >
          </cc:Agent
          >
        </dc:creator
        >
        <dc:subject
          >
          <rdf:Bag
            >
            <rdf:li
              >eskimo</rdf:li
            >
            <rdf:li
              >house</rdf:li
            >
            <rdf:li
              >ice</rdf:li
            >
            <rdf:li
              >igloo</rdf:li
            >
            <rdf:li
              >iglu</rdf:li
            >
            <rdf:li
              >inuit</rdf:li
            >
            <rdf:li
              >polar</rdf:li
            >
            <rdf:li
              >snow</rdf:li
            >
          </rdf:Bag
          >
        </dc:subject
        >
      </cc:Work
      >
      <cc:License
          rdf:about="http://creativecommons.org/licenses/publicdomain/"
        >
        <cc:permits
            rdf:resource="http://creativecommons.org/ns#Reproduction"
        />
        <cc:permits
            rdf:resource="http://creativecommons.org/ns#Distribution"
        />
        <cc:permits
            rdf:resource="http://creativecommons.org/ns#DerivativeWorks"
        />
      </cc:License
      >
    </rdf:RDF
    >
  </metadata
  >
</svg
>
