<?xml version="1.0" encoding="UTF-8" standalone="no"?>
<!-- Created with Inkscape (http://www.inkscape.org/) -->
<svg
    xmlns:inkscape="http://www.inkscape.org/namespaces/inkscape"
    xmlns:rdf="http://www.w3.org/1999/02/22-rdf-syntax-ns#"
    xmlns="http://www.w3.org/2000/svg"
    xmlns:xlink="http://www.w3.org/1999/xlink"
    xmlns:ns1="http://sozi.baierouge.fr"
    xmlns:cc="http://creativecommons.org/ns#"
    xmlns:dc="http://purl.org/dc/elements/1.1/"
    xmlns:sodipodi="http://sodipodi.sourceforge.net/DTD/sodipodi-0.dtd"
    id="svg2"
    sodipodi:docname="dibujo89.svg"
    viewBox="0 0 300 300"
    version="1.1"
    inkscape:version="0.48.4 r9939"
  >
  <title
      id="title3002"
    >smiling man face</title
  >
  <sodipodi:namedview
      id="base"
      bordercolor="#666666"
      inkscape:pageshadow="2"
      inkscape:window-y="0"
      pagecolor="#ffffff"
      inkscape:window-height="552"
      inkscape:window-maximized="1"
      inkscape:zoom="0.98994949"
      inkscape:window-x="0"
      showgrid="false"
      borderopacity="1.0"
      inkscape:current-layer="layer2"
      inkscape:cx="256.54864"
      inkscape:cy="153.9389"
      inkscape:window-width="1024"
      inkscape:pageopacity="0.0"
      inkscape:document-units="px"
  />
  <g
      id="layer2"
      inkscape:label="Capa"
      inkscape:groupmode="layer"
    >
    <g
        id="g3024"
        transform="translate(1.0102 -2.0725e-8)"
      >
      <path
          id="path3904"
          style="fill:#fed9a2"
          inkscape:connector-curvature="0"
          d="m150.78 56.219c-3.5845 0.0045-6.9777 0.15639-10.188 0.4375-3.2098 0.28111-6.2344 0.69997-9.0625 1.1875s-5.467 1.0637-7.9062 1.6875c-2.4392 0.62381-4.6754 1.2788-6.7188 1.9688-4.0866 1.3799-7.3832 2.8389-9.8438 4.0625s-4.0971 2.2126-4.875 2.7188c0.66125 3.185 1.0871 6.3082 1.2812 9.3438 0.19411 3.0356 0.16514 5.9784-0.0313 8.8438-0.19639 2.8653-0.55226 5.6695-1.0625 8.3438-0.51024 2.6742-1.1588 5.2252-1.9062 7.6875-0.74746 2.4624-1.592 4.8328-2.5 7.0625-0.90802 2.2297-1.8831 4.3364-2.875 6.3125-1.9839 3.9523-4.0778 7.3741-5.9375 10.188l-0.5625 0.84375-0.625-0.8125c-0.70506-0.86536-1.1753-1.9687-1.4687-3.2188-0.29344-1.2501-0.39564-2.6567-0.40625-4.1562-0.01059-1.4996 0.06964-3.0693 0.25-4.6875s0.45826-3.2843 0.75-4.875c0.64763-3.5311 1.4402-6.7054 2.0625-8.9375-0.866-0.776-1.701-1.339-2.5-1.72-0.798-0.381-1.553-0.584-2.281-0.656s-1.408 0.004-2.063 0.156c-0.65476 0.1523-1.2647 0.39578-1.8438 0.6875-1.3075 0.68456-2.5424 1.5721-3.6562 2.625-1.1139 1.0529-2.1156 2.2733-3.0312 3.5938-0.91567 1.3205-1.7247 2.7316-2.4375 4.2188-0.71284 1.4872-1.3383 3.0407-1.8438 4.5938-0.17067 0.87908-0.28335 1.7778-0.3125 2.7188-0.02915 0.94095 0.03844 1.9113 0.1875 2.9062 0.14906 0.99497 0.38603 2.0214 0.75 3.0625s0.85317 2.108 1.4688 3.1875c0.55882 0.97994 1.2294 1.9626 2.0312 2.9688 0.80181 1.0062 1.739 2.0383 2.8125 3.0625s2.2825 2.0599 3.6562 3.0938c1.3738 1.0339 2.891 2.0584 4.5938 3.0938 0.03654-0.55953 0.23222-2.2635 0.59375-3.9688 0.18076-0.85262 0.42009-1.6962 0.6875-2.4062 0.26741-0.71007 0.57983-1.281 0.9375-1.5625-0.52939 4.3605-0.82795 8.794-0.90625 13.281-0.0783 4.4872 0.03653 9.0258 0.34375 13.594 0.30722 4.568 0.81033 9.1784 1.4375 13.781 0.62717 4.6028 1.3997 9.1896 2.2812 13.781 0.88053 3.435 1.937 6.8835 3.1875 10.281 1.2505 3.3978 2.6992 6.7432 4.375 10s3.5622 6.4253 5.7188 9.4375 4.5572 5.8674 7.25 8.5312c1.5029 1.4582 3.1184 2.856 4.8125 4.1562 1.6941 1.3003 3.4902 2.5168 5.3438 3.6562 1.8535 1.1395 3.7688 2.1804 5.75 3.1562 1.9812 0.97582 4.0167 1.8782 6.0938 2.6875 2.077 0.80933 4.2026 1.5475 6.3438 2.1875s4.2952 1.1884 6.4688 1.6562c2.1735 0.46783 4.3572 0.86344 6.5312 1.1562 2.1741 0.29281 4.3571 0.4788 6.5 0.59375 0.0265 0.001 0.0361-0.001 0.0625 0 2.488-0.15184 4.9947-0.41999 7.4688-0.84375 2.474-0.42376 4.9205-1.0133 7.3438-1.75 0.005-0.023-0.006-0.0399 0-0.0625l0.125 0.0313c2.8198-0.86369 5.5798-1.9525 8.2812-3.2812s5.3456-2.8772 7.875-4.7188 4.9463-3.9728 7.25-6.375 4.4756-5.0831 6.5-8.0938c1.4526-2.1604 2.8416-4.5004 4.125-7s2.4696-5.1745 3.5625-8.0312 2.0876-5.8931 2.9688-9.125c0.8811-3.2319 1.6332-6.6562 2.2812-10.281 0.64803-3.625 1.2001-7.4326 1.5938-11.469 0.39367-4.0361 0.63198-8.2848 0.75-12.75s0.11641-9.1503-0.0625-14.062c-0.17891-4.9122-0.53413-10.06-1.0312-15.438 0.36649 0.38234 0.68779 1.0519 0.9375 1.9062 0.24971 0.85436 0.42682 1.8945 0.59375 2.9688 0.33386 2.1485 0.54331 4.4846 0.75 6 0.97242-0.16209 2.0056-0.41855 3.0625-0.78125s2.1472-0.83966 3.2188-1.4062c1.0716-0.56659 2.1397-1.2262 3.1562-2 1.0165-0.77376 1.9833-1.6408 2.875-2.625 0.89565-0.98853 1.7-2.1087 2.4062-3.3125 0.70621-1.2038 1.3004-2.51 1.75-3.9375 0.44964-1.4275 0.74905-2.9652 0.875-4.625s0.0774-3.4432-0.1875-5.3438c-0.002-0.0136 0.002-0.0175 0-0.0313-0.40687-2.3454-0.94227-4.3078-1.5938-5.9688-0.65148-1.661-1.4092-3.0306-2.2188-4.125s-1.6813-1.917-2.5625-2.5625c-0.88123-0.64555-1.7899-1.0918-2.6562-1.4062-1.456-0.52848-2.7923-0.69969-3.875-0.6875-1.0827 0.0122-1.8983 0.18715-2.2812 0.28125-0.70398 2.6455-1.5976 5.4699-2.5625 8.75-0.96486 3.2801-2.0033 7.0212-3.0312 11.5l-0.3125 1.2812-0.90625-0.90625c-0.68968-0.64566-1.3375-1.3838-1.9375-2.2188-0.6-0.83498-1.1701-1.7561-1.6875-2.75-1.0347-1.9877-1.9098-4.2469-2.6562-6.6875-0.7465-2.4406-1.3604-5.0687-1.875-7.7188-0.51462-2.6501-0.94214-5.3215-1.2812-7.9375-0.57727-4.4532-0.90471-8.5855-1.0938-11.875-0.18904-3.2895-0.2338-5.7527-0.25-6.8438-2.579-0.39788-5.3568-0.71968-8.1875-1.1562-2.8307-0.43657-5.7049-0.99478-8.5-1.7812-4.6523-1.309-8.9066-2.7299-12.75-4.1875s-7.2632-2.9463-10.312-4.4062c-3.0494-1.46-5.73-2.8714-8-4.1875s-4.1508-2.5365-5.6562-3.5625zm22.25 184.56c-2.3909 0.69846-4.7913 1.2408-7.2188 1.6562-2.4275 0.41548-4.8757 0.69766-7.3125 0.84375h-0.0313-0.0313c-3.0349-0.15067-5.9577-0.446-8.75-0.84375s-5.4612-0.88943-8.0312-1.5c0.2947 1.1383 0.62989 2.7114 0.875 4.625s0.40781 4.1458 0.3125 6.625c-0.0953 2.4792-0.46092 5.1962-1.1875 8.0312-0.36329 1.4175-0.79936 2.8766-1.375 4.3438s-1.2694 2.9469-2.0938 4.4375c2.0732 1.3851 4.7016 2.9111 7.6562 4.2188 1.4773 0.6538 3.0434 1.2563 4.6562 1.75 1.6128 0.49372 3.2769 0.88516 4.9688 1.125 1.734 0.24582 3.4759 0.33295 5.2188 0.21875s3.4862-0.4247 5.1875-1c1.7014-0.5753 3.3593-1.3938 4.9688-2.5312 1.6094-1.1375 3.1578-2.6055 4.625-4.4062-0.86249-6.1585-1.695-12.246-2.1562-17.375-0.19012-2.1136-0.32092-4.066-0.375-5.7812-0.0541-1.7153-0.0428-3.1936 0.0937-4.4375z"
      />
      <path
          id="path3012"
          d="m102.03 67.665s32.325-11.112 48.235-7.8287c15.657 8.3338 20.708 14.9 50.255 19.193 0.25254 17.678 0 28.537 9.3439 44.699-1.5152 35.608 8.521 99.233-50.931 118.41 22.451 7.1343 68.196-30.288 60.357-102.14 7.9006 0.0451 20.945-11.798 18.559-22.564-1.9982-10.342-5.8216-15.348-11.691-17.575-9.919-19.688-21.016-25.142-21.016-25.142s-53.587-34.389-103.11-7.0541z"
          sodipodi:nodetypes="cccccccccc"
          style="fill:#fccb8d"
          inkscape:connector-curvature="0"
      />
      <path
          id="path3920"
          style="fill:#ed6e24"
          inkscape:connector-curvature="0"
          d="m150.19 19.344c-2.2877-0.0036-4.644 0.09155-7.0312 0.25s-4.8192 0.39972-7.2812 0.75-4.9568 0.80306-7.4688 1.375-5.0566 1.2703-7.5938 2.0938c-2.5372 0.82343-5.0561 1.7703-7.5938 2.875-2.5376 1.1047-5.0805 2.3654-7.5938 3.7812-2.5133 1.4159-5.0046 2.9931-7.4688 4.75-2.4641 1.7569-4.891 3.6848-7.2812 5.8125l-0.625 0.53125-0.5-0.65625c-1.1398-1.6147-1.1373-1.5694-1.4688-1.9688-0.09877 0.48119-0.13693 0.57242-0.21875 1.2188-0.09378 0.74066-0.13335 1.5213-0.09375 2.1875 0.0094 0.65144 0.03735 1.1362-0.03125 1.5312-0.0686 0.39507-0.24178 0.694-0.59375 0.96875-1.3269-0.76819-2.1072-1.1203-2.6562-1.375-0.03218 0.52338-0.01709 1.2222 0.25 1.9688 0.13354 0.37329 0.33391 0.75495 0.625 1.125s0.68371 0.73504 1.1875 1.0625l2.217 1.468-2.688-0.094c-1.8506-0.07118-4.269 0.33024-6.3125 0.71875 0.68951 0.13741 1.3974 0.24271 2 0.4375 0.38895 0.12572 0.74073 0.24351 1.0625 0.40625s0.59902 0.37718 0.8125 0.71875l0.4375 0.6875-0.75 0.40625c-0.45261 0.21792-1.0047 0.56384-1.625 1.0938-0.6203 0.52991-1.3071 1.2237-2 2.125-0.69285 0.90135-1.3922 2.0115-2.0625 3.3438-0.67027 1.3322-1.2912 2.8962-1.8438 4.7188-0.55255 1.8226-1.0353 3.9089-1.375 6.2812-0.33969 2.3723-0.56206 5.0185-0.59375 8s0.12856 6.2873 0.5 9.9375 0.97404 7.6529 1.8438 12.031c0.77447-0.79649 1.8369-1.7564 3.375-2.5312 0.64041-0.32261 1.3671-0.60974 2.125-0.78125 0.75786-0.17151 1.5625-0.24296 2.4062-0.1875 0.84371 0.05546 1.7271 0.23544 2.625 0.59375 0.89795 0.35831 1.7982 0.88798 2.7188 1.625 0.24928-0.84292 0.4375-1.4062 0.4375-1.4062 0.183 0.63482 0.20619 1.5245 0.125 2.5625s-0.28665 2.2186-0.5 3.4062c-0.42669 2.3753-0.96188 4.7972-1.125 6.25-0.57334 3.1261-0.98886 6.4342-0.96875 9.2812 0.0078 1.1104 0.09991 2.1232 0.28125 3s0.44205 1.616 0.75 2.2812c1.0656-1.652 2.191-3.4631 3.3125-5.4688s2.2442-4.1992 3.3125-6.5312c1.0682-2.3321 2.094-4.8061 3-7.4375 0.90598-2.6314 1.6778-5.409 2.3125-8.3125 0.63466-2.9035 1.1207-5.9453 1.375-9.0938 0.25-3.149 0.3-6.416 0.06-9.782s-0.76-6.818-1.59-10.375c-0.837-3.557-1.994-7.217-3.535-10.938 0.6205 0.46172 1.1896 1.2133 1.7188 2.0938 0.52912 0.88048 1.0118 1.8837 1.4375 2.9375 0.85148 2.1075 1.509 4.3284 1.875 5.6562 1.0629-0.65684 2.8474-1.7001 5.375-2.9062 2.5276-1.2062 5.7811-2.5751 9.7188-3.875 1.9688-0.64995 4.1265-1.287 6.4375-1.875 2.311-0.58795 4.7911-1.1247 7.4375-1.5938 2.6464-0.46901 5.4626-0.86313 8.4375-1.1562 2.9749-0.29312 6.1096-0.50223 9.4062-0.5625-0.47595-0.39231-0.80485-0.93556-1.0312-1.5-0.2264-0.56444-0.3464-1.1277-0.46875-1.5625 0 0 0.79978 0.71902 2.4688 1.9375s4.1932 2.9285 7.5625 4.875 7.5866 4.1284 12.688 6.3125c2.5505 1.0921 5.3233 2.1905 8.3125 3.25s6.1931 2.0968 9.625 3.0625c2.745 0.77236 5.6309 1.2823 8.4688 1.7188 2.8378 0.43646 5.6421 0.77504 8.2812 1.1875s5.1151 0.89344 7.2812 1.625c1.0831 0.36578 2.0934 0.7934 3 1.3125 0.90664 0.5191 1.7149 1.1223 2.4062 1.8438-1.3238-0.42173-3.2515-1.1603-5.3438-1.8125-2.0922-0.65216-4.3597-1.1955-6.3125-1.25 0.0275 1.3477 0.11605 3.833 0.3125 7.0312 0.19645 3.1983 0.49496 7.1129 1.0312 11.25 0.31461 2.427 0.73233 4.8834 1.2188 7.3125 0.48642 2.4291 1.0486 4.8272 1.7188 7.0625 0.67011 2.2353 1.4468 4.3104 2.3125 6.1562 0.86569 1.8458 1.8331 3.4583 2.9062 4.7188 1.481-6.1336 2.9765-10.931 4.1875-15.062 0.60552-2.0659 1.1433-3.962 1.5625-5.7812 0.41921-1.8192 0.72132-3.5708 0.875-5.3125 0.29421 0.38034 0.48879 0.81582 0.59375 1.2812 0.10496 0.46543 0.1063 0.96938 0.0937 1.5-0.025 1.0612-0.18579 2.2348-0.25 3.4375 0.30899-0.04886 0.63055-0.12675 1.0312-0.15625 0.62714-0.0462 1.3676-0.03975 2.1562 0.03125 0.254-0.93845 1.4576-5.4496 2.8438-10.906 0.76833-3.0247 1.536-6.1564 2.125-8.7812 0.57265-2.5521 0.9488-4.6401 1-5.5-1.3514-2.9363-4.6543-9.9096-8.0938-16.75-1.7404-3.4613-3.5248-6.8546-5.0625-9.625-1.5139-2.7275-2.7767-4.8419-3.5312-5.7188-0.0187-0.0171-0.0748-0.07652-0.0937-0.09375-1.3452-1.2188-3.5682-2.7725-6.1875-4.4062s-5.6066-3.3594-8.4375-4.9375c-2.8509-1.5893-5.5401-3.017-7.5625-4.125-1.0112-0.55398-1.8525-1.0167-2.4688-1.375-0.30811-0.17914-0.58536-0.34076-0.78125-0.46875-0.0887-0.05794-0.14705-0.13369-0.21875-0.1875-0.002-0.0011-0.0605 0.0012-0.0625 0-0.41247-0.19308-1.6077-0.69815-3.5-1.3438-1.8923-0.6456-4.4771-1.4466-7.5625-2.2188-3.0952-0.77457-6.7042-1.5117-10.75-2.125-4.0458-0.61333-8.505-1.0845-13.25-1.25-1.1863-0.04138-2.4049-0.09185-3.625-0.09375zm21.81 56.437c-0.39561 0.02385-0.8294 0.07385-1.25 0.1875-0.6118 0.16532-1.2213 0.49476-1.875 0.9375s-1.3319 1.0089-2 1.6562c0.72864-0.07266 1.5918-0.1299 2.5625-0.09375 0.97065 0.03615 2.0349 0.16317 3.1562 0.40625s2.3193 0.60813 3.5 1.1562c1.1807 0.54812 2.3513 1.2675 3.5 2.2188-0.38435-1.1514-0.92893-2.2929-1.625-3.2812-0.69607-0.9884-1.528-1.8115-2.5625-2.375-0.70144-0.38203-1.4745-0.67168-2.25-0.78125-0.39-0.054-0.76-0.055-1.16-0.031zm-40.59 0.469c-1.1422-0.0066-2.2601 0.10697-3.2812 0.375s-1.9685 0.68868-2.7188 1.2812c-0.6137 0.48469-1.0678 1.1173-1.4062 1.9062-0.33841 0.789-0.54861 1.7175-0.625 2.7812 0.65645-0.3778 1.6062-0.85914 2.75-1.375s2.4814-1.0572 3.9688-1.5 3.0943-0.81011 4.7812-0.96875 3.4449-0.1179 5.1875 0.21875c-0.52838-0.48512-1.2363-0.95435-2.1875-1.375-0.90161-0.39872-1.9539-0.73266-3.0625-0.96875s-2.2641-0.36846-3.4062-0.375z"
      />
      <path
          id="path3928"
          style="fill:#ffffff"
          inkscape:connector-curvature="0"
          d="m166.62 87.281c-0.31079 0.0012-0.62358 0.01054-0.9375 0.03125-1.0295 0.06793-2.081 0.2532-3.125 0.5625s-2.0846 0.73554-3.125 1.3125-2.0751 1.2853-3.0938 2.1562c-1.0186 0.8709-2.0212 1.9026-3 3.0938 1.0378 1.3054 1.8463 2.756 2.4062 4.3125 0.55996 1.5565 0.875 3.2142 0.875 4.9375 0 1.0686-0.12241 2.1208-0.34375 3.125s-0.54303 1.976-0.96875 2.9062l0.0937-0.0625c0.29865 0.76185 0.90989 1.5697 1.7188 2.3438 0.80886 0.77401 1.837 1.5337 2.9688 2.1875 1.1318 0.65377 2.3795 1.1992 3.6562 1.625 1.2767 0.42581 2.5703 0.73286 3.8125 0.84375 1.1252 0.10044 2.1916 0.0642 3.2188-0.0625 1.0271-0.12674 2.0193-0.35973 2.9375-0.6875 0.91823-0.32777 1.7639-0.74736 2.5625-1.25 0.79859-0.50264 1.5506-1.0674 2.2188-1.7188 0.66818-0.65137 1.2542-1.3823 1.7812-2.1562 0.52701-0.77394 0.99993-1.5984 1.375-2.4688 0.37507-0.87036 0.66263-1.7781 0.875-2.7188 0.21237-0.94063 0.33611-1.9215 0.375-2.9062 0.0545-1.3802-0.15654-2.7789-0.625-4.1562-0.46846-1.3774-1.194-2.7464-2.0938-4-0.89979-1.2536-1.9793-2.3975-3.2188-3.4062-1.2395-1.0088-2.6374-1.8571-4.125-2.5-1.1157-0.4822-2.2685-0.86582-3.4688-1.0938-0.90019-0.17095-1.8176-0.25355-2.75-0.25zm-28.344 1.75c-1.173 0-2.303 0.11614-3.4062 0.3125-1.1033 0.19636-2.1759 0.47122-3.1875 0.84375s-1.9458 0.84647-2.8438 1.375-1.7376 1.1169-2.5 1.7812c-0.76237 0.66436-1.4578 1.4075-2.0625 2.1875-0.60475 0.78-1.1374 1.5933-1.5625 2.4688-0.42515 0.87547-0.74518 1.7992-0.96875 2.75-0.22357 0.95076-0.34375 1.9316-0.34375 2.9375s0.12018 1.9867 0.34375 2.9375c0.22357 0.95076 0.5436 1.8745 0.96875 2.75 0.42515 0.87547 0.95775 1.72 1.5625 2.5s1.3001 1.4919 2.0625 2.1562c0.76237 0.66436 1.602 1.284 2.5 1.8125 0.898 0.52853 1.8321 0.97122 2.8438 1.3438 1.0116 0.37253 2.0842 0.64739 3.1875 0.84375s2.2333 0.3125 3.4062 0.3125c1.173 0 2.3353-0.11614 3.4375-0.3125s2.1464-0.47122 3.1562-0.84375 1.9793-0.81522 2.875-1.3438c0.89574-0.52853 1.74-1.1481 2.5-1.8125 0.75996-0.66436 1.4288-1.3762 2.0312-2.1562 0.60249-0.78 1.1392-1.6245 1.5625-2.5 0.42334-0.87547 0.74624-1.7992 0.96875-2.75 0.22251-0.95076 0.34375-1.9316 0.34375-2.9375s-0.12124-1.9867-0.34375-2.9375c-0.22251-0.95076-0.54541-1.8745-0.96875-2.75-0.42334-0.87547-0.96001-1.6887-1.5625-2.4688-0.60249-0.78-1.2713-1.5231-2.0312-2.1875-0.75996-0.66436-1.6043-1.2527-2.5-1.7812-0.89574-0.52853-1.8652-1.0025-2.875-1.375-1.0098-0.37253-2.054-0.6474-3.1562-0.84375-1.1022-0.19636-2.2645-0.3125-3.4375-0.3125z"
      />
      <path
          id="path2994"
          d="m141.25 240.18s16.786 5.5357 32.679-0.53571c-0.17857 6.25-0.53571 3.75-0.53571 3.75s-15 8.9286-32.143-0.89285c-0.53571-2.1429 0-2.3214 0-2.3214z"
          sodipodi:nodetypes="ccccc"
          style="fill:#fccb8d"
          inkscape:connector-curvature="0"
      />
      <path
          id="path2998"
          d="m141.43 169.64s15 14.464 32.5-2.8572c-2.9812 8.2143-16.412 21.25-32.5 2.8572z"
          sodipodi:nodetypes="ccc"
          style="fill:#fccb8d"
          inkscape:connector-curvature="0"
      />
      <path
          id="path3000"
          d="m123.36 111.99s6.9448 10.48 21.213 6.0609c-4.0406 4.0406-17.425 9.7227-21.213-6.0609z"
          style="fill:#fccb8d"
          inkscape:connector-curvature="0"
      />
      <path
          id="path3002"
          d="m157.46 113.5s15.026 9.849 23.486-2.2728c-1.389 6.9448-12.501 19.319-23.486 2.2728z"
          style="fill:#fccb8d"
          inkscape:connector-curvature="0"
      />
      <path
          id="path3004"
          d="m85.737 134.84s-15.784-4.9245-17.046-21.087c-1.5152 8.3338 2.3991 16.92 16.794 25.254 0-2.6516 0.25254-4.1669 0.25254-4.1669z"
          style="fill:#fccb8d"
          inkscape:connector-curvature="0"
      />
      <path
          id="path3008"
          d="m76.607 113.48s4.8214 0.98215 6.25 9.9107c-2.3214-2.5893-4.4643-1.6964-6.25-9.9107z"
          style="fill:#fccb8d"
          inkscape:connector-curvature="0"
      />
      <path
          id="path3014"
          d="m78.792 98.853s-7.899-33.139 6.7438-44.925c1.964-1.249 0.357-2.678-0.625-3.303 1.607 0.089 5.714-0.357 5.982-0.625 0.26786-0.26786-2.3214-2.2321-2.6786-3.3036 0.80357-0.98214 1.25-2.0536 1.0714-3.5714 1.6964 0.625 1.875 0.35714 1.875 0.35714s36.876-36.931 96.98-14.203c10.607 5.3033 24.496 13.637 24.496 13.637l16.415 31.567-5.3033 25.759 2.5254 0.25254 6.0609-26.011-16.16-33.083-26.77-15.91s-54.801-23.234-98.742 15.152c-1.765-3.03-3.027-3.535-3.027-3.535l-0.50508 6.8185-2.7779-1.0102c-0.81531 1.8226 0.08344 3.4647 1.5152 5.0508l-8.0812 2.2728c1.5357 0.62109 4.8709 0.34249 4.2931 2.0203 0 0-13.132 1.2627-6.3135 49.245 2.5254-2.5254 3.0305-2.6516 3.0305-2.6516z"
          sodipodi:nodetypes="cccscccccccccccccccccccc"
          style="fill:#f6a053"
          inkscape:connector-curvature="0"
      />
      <path
          id="path3016"
          d="m122.86 83.125s2.0536-9.4643 17.857-4.0179c-2.4107-2.5-16.786-9.0179-17.857 4.0179z"
          style="fill:#f6a053"
          inkscape:connector-curvature="0"
      />
      <path
          id="path3018"
          d="m165.92 79.029s8.902-7.3867 14.205 4.0406c-1.2627-4.5457-5.8715-12.753-14.205-4.0406z"
          style="fill:#f6a053"
          inkscape:connector-curvature="0"
      />
      <path
          id="path2997"
          d="m150.21 17.892c-18.366-0.02853-40.389 4.6578-59.693 21.517-1.1986-1.6302-2.1209-2.7378-2.1209-2.7378l-0.92546-0.92547-0.30849 1.2725s-0.37639 1.3347-0.57842 2.9306c-0.10106 0.79796-0.16374 1.6588-0.11562 2.4679 0.0074 0.12691 0.10291 0.22235 0.11562 0.34705-0.50754-0.26546-1.241-0.67467-1.5424-0.80978-0.59691-0.26758-0.92547-0.34705-0.92547-0.34705l-0.73266-0.15424-0.11562 0.73266s-0.46998 3.1157 1.5039 5.4757c-2.1271-0.43829-6.6799-0.20235-8.9462 2.8921 0 0 1.5819 0.15786 3.2777 0.46273 0.84792 0.15244 1.7226 0.32387 2.3908 0.53986 0.21002 0.06787 0.1896 0.0768 0.34705 0.15424-5.0132 3.316-13.689 15.529-6.8253 49.165-0.53677 0.50163-5.5784 5.3539-6.9796 12.571-0.73908 3.8068-0.39906 8.2576 2.2365 12.879 2.4633 4.3196 6.9582 8.7576 14.306 13.111-0.54633 10.387-0.46128 27.676 4.0489 45.271 3.5672 13.916 9.9157 28.003 20.939 38.908 7.6775 7.5952 17.655 13.601 30.463 16.928 1.0746 3.6116 3.8314 15.852-3.4319 28.381l-0.34706 0.61697 0.57842 0.38561c4.2504 2.9082 11.026 6.5906 18.394 7.6351 7.3677 1.0444 15.377-0.64465 21.594-8.4449l0.19281-0.26993-0.0386-0.30849c-0.88088-6.2763-1.6934-12.48-2.1594-17.661-0.40774-4.5332-0.53472-8.3294-0.23136-10.527 11.301-3.6305 21.892-10.768 30.001-22.828 10.788-16.044 17.164-40.045 15.27-76.782l0.72245-0.12326c4.2512-0.68938 8.8105-2.7572 12.658-7.0039 3.8478-4.2468 6.3356-10.41 5.2057-18.432v-0.0386c-1.6822-9.757-6.0213-13.792-9.9873-15.232-0.53704-0.19493-1.0709-0.31441-1.581-0.42417 0.29858-1.111 1.4586-5.4576 2.815-10.797 0.7703-3.0324 1.5652-6.1822 2.1594-8.8305 0.59423-2.6483 0.99564-4.7236 1.0412-5.8613v-0.1928l-0.0772-0.15424c-1.33-2.8948-4.6832-10.061-8.175-17.005-1.7459-3.4722-3.5359-6.879-5.0901-9.6788s-2.8515-4.9563-3.8176-6.0541l-0.0386-0.03856c-2.9516-2.7056-9.2762-6.4107-15-9.6017-2.862-1.5955-5.5815-3.0607-7.5965-4.1646-1.0075-0.55195-1.837-1.0052-2.4294-1.3496-0.29619-0.17221-0.53711-0.32162-0.69409-0.42417-0.0784-0.05128-0.12458-0.09289-0.15424-0.11568l-0.0772-0.11568-0.19281-0.07713c-1.0662-0.50175-5.1033-2.0551-11.376-3.6247-6.2722-1.5696-14.714-3.0965-24.332-3.4319-1.19-0.0415-2.4004-0.07522-3.6247-0.07713zm-0.0386 1.4653c1.2201 0.0019 2.4385 0.03575 3.6247 0.07713 9.4901 0.33095 17.833 1.8442 24.024 3.3934 6.1708 1.5443 10.242 3.1615 11.067 3.5476 0.002 0.0012 0.0361-0.0011 0.0386 0 0.0717 0.05381 0.14268 0.13487 0.23137 0.19281 0.19589 0.12799 0.46311 0.2836 0.77122 0.46273 0.61621 0.35827 1.4567 0.83422 2.4679 1.3882 2.0224 1.108 4.7071 2.5367 7.558 4.126 5.6618 3.1563 11.963 6.8942 14.653 9.3318 0.0189 0.01723 0.0585 0.06002 0.0772 0.07712 0.75456 0.8768 2.0337 3.0181 3.5476 5.7456 1.5377 2.7704 3.3111 6.1404 5.0515 9.6017 3.4394 6.8404 6.7464 13.838 8.0978 16.774-0.0512 0.8599-0.42995 2.9235-1.0026 5.4757-0.58896 2.6249-1.3525 5.7672-2.1208 8.7919-1.3861 5.4567-2.5995 9.9743-2.8535 10.913-0.78861-0.071-1.5323-0.0848-2.1594-0.0386-0.4007 0.0295-0.73216 0.10538-1.0412 0.15424 0.12842-2.4054 0.75264-4.687-0.42418-6.2084-0.61471 6.9668-3.6705 13.877-6.6325 26.144-4.2926-5.0417-6.878-15.55-8.1364-25.258-1.0726-8.2742-1.2946-15.582-1.3496-18.278 3.9056 0.10901 8.9979 2.2414 11.645 3.0849-2.7656-2.8858-7.4084-3.9566-12.687-4.7816-5.2783-0.82492-11.246-1.3859-16.736-2.9306-27.456-7.7252-40.682-19.435-40.682-19.435 0.2447 0.86964 0.552 2.3003 1.5039 3.0849-26.373 0.48219-42.562 9.3266-46.813 11.954-0.73202-2.6557-2.5309-8.8345-5.0129-10.681 12.33 29.762 0.27283 54.728-8.2521 67.945-0.61589-1.3305-1.0255-3.0621-1.0412-5.2829-0.02011-2.847 0.39068-6.1671 0.96403-9.2932 0.32623-2.9057 2.2359-9.6846 1.5039-12.224 0 0-0.17489 0.58385-0.42417 1.4268-3.6824-2.9481-7.31-2.563-9.8716-1.2725-1.5381 0.77481-2.6189 1.7485-3.3934 2.545-6.9577-35.026 3.5515-45.802 7.1724-47.546l0.73266-0.38561-0.42417-0.6941c-0.423-0.687-1.108-0.871-1.885-1.122-0.603-0.195-1.316-0.325-2.006-0.463 2.0435-0.38852 4.4734-0.76528 6.324-0.6941l2.6993 0.07713-2.2365-1.4653c-2.0151-1.3098-2.1081-3.1178-2.0437-4.1646 0.54904 0.25475 1.3338 0.62001 2.6607 1.3882 0.70395-0.5495 0.63577-1.2036 0.61698-2.5065-0.0396-0.66624-0.01666-1.4573 0.07712-2.198 0.08182-0.64633 0.1326-0.7142 0.23137-1.1954 0.33144 0.3994 0.32557 0.35196 1.4653 1.9666l0.50129 0.65554 0.61698-0.53986c19.124-17.021 41.004-21.7 59.304-21.671zm0.61698 36.864c6.0216 4.1039 18.101 11.114 36.71 16.35 5.5903 1.5729 11.539 2.1349 16.697 2.9306 0.0324 2.1821 0.19509 9.7958 1.3496 18.702 1.3565 10.464 3.8915 22.175 9.4089 27.34l0.92547 0.8869 0.30847-1.2725c2.0558-8.9576 4.1834-14.954 5.5914-20.245 0.76583-0.1882 3.2578-0.67134 6.1698 0.38561 3.4655 1.2578 7.3958 4.6934 9.0233 14.075 0.002 0.0137-0.002 0.025 0 0.0386 1.0595 7.6022-1.2761 13.244-4.8587 17.198-3.567 3.9369-8.4113 6.1769-12.301 6.8253-0.41339-3.0309-0.80916-9.3449-2.2751-10.874 3.977 43.018-2.5694 70.868-14.19 88.151-8.0974 12.043-18.644 19.026-29.923 22.481l-0.11563-0.0386c-0.006 0.0226 0.005 0.0542 0 0.0772-4.8465 1.4734-9.8313 2.2799-14.807 2.5836-0.0264-0.001-0.0507 0.001-0.0772 0-17.143-0.91961-35.793-7.5762-47.816-19.242-10.771-10.655-17.031-24.512-20.553-38.253-3.5262-18.367-5.2796-37.006-3.1621-54.448-1.4307 1.1261-2.1249 6.8245-2.198 7.9436-6.811-4.1413-10.875-8.3041-13.111-12.224-2.4623-4.3178-2.765-8.3605-2.0823-11.877 2.0217-6.2121 5.7211-12.301 10.951-15.039 2.3163-1.1669 5.2482-1.5579 8.7148 1.5424-0.62231 2.2321-1.4347 5.415-2.0823 8.9462-0.58349 3.1814-1.0238 6.564-1.0026 9.5631 0.02123 2.9992 0.47928 5.6344 1.8895 7.3652l0.61698 0.80978 0.57842-0.84834c7.4388-11.254 18.324-32.284 13.034-57.765 3.1117-2.0247 19.911-12.033 48.587-12.07zm21.093 18.047c-0.51179 0.03035-1.0266 0.13053-1.5424 0.26993-2.0635 0.5576-4.1323 2.0187-6.1312 4.5888l-1.3882 1.7738 2.1594-0.61698s9.2168-2.5184 15.54 4.8587l1.3882 1.581-0.0772-2.0823c-0.12018-3.6069-2.3816-7.5381-5.7456-9.3703-0.84099-0.45804-1.7326-0.78974-2.6993-0.92546-0.48331-0.06786-0.9921-0.10748-1.5039-0.07712zm-40.489 0.46273c-2.5083-0.01445-4.9903 0.52547-6.8639 2.0052-1.8735 1.4797-3.0092 3.912-2.7764 7.288l0.0772 1.2725 1.0412-0.6941s10.462-6.5513 18.548-3.8561l1.1954 0.38561-0.23137-1.234c-0.30882-1.6213-1.9217-2.7737-3.9332-3.6633-2.0116-0.88959-4.5484-1.4895-7.0567-1.5039zm40.605 1.0411c0.3956-0.02382 0.76907-0.01616 1.1568 0.03863 0.77552 0.10958 1.5351 0.38919 2.2365 0.77122 2.0691 1.1269 3.4344 3.3656 4.2032 5.6685-4.5947-3.8051-9.8106-3.9925-12.725-3.7019 1.3362-1.2946 2.6711-2.253 3.8947-2.5836 0.4206-0.11365 0.83835-0.16895 1.234-0.19281zm-40.605 0.46273c2.2843 0.01308 4.675 0.5522 6.4783 1.3496 0.95119 0.42065 1.6696 0.90308 2.198 1.3882-6.9705-1.3466-14.071 2.1135-16.697 3.6247 0.15277-2.1276 0.81634-3.7351 2.0437-4.7044 1.5006-1.1851 3.6926-1.6713 5.977-1.6581zm34.859 9.6017c-4.6802 0.13101-9.6187 2.3008-13.921 7.4423-3.3708-3.513-8.4265-5.7456-14.036-5.7456-10.083 0-18.394 7.1942-18.394 16.157s8.3106 16.119 18.394 16.119c1.8097 0 3.5511-0.26318 5.2057-0.6941-4.8254 5.6342-8.6427 13.955-10.064 22.635-1.5948 9.7369-0.14965 19.987 6.5554 27.147h0.0386v0.0386c9.5396 8.8662 18.455 8.3672 24.795 5.5528 1.8142-0.48828 8.9158-5.7284 9.0618-8.7534 0 0-3.6953 4.7645-9.6403 7.4037-5.9352 2.6349-14.004 3.2531-23.175-5.2443-0.0126-0.0133-0.026-0.0252-0.0386-0.0386-6.2637-6.7209-7.6733-16.421-6.1312-25.836 1.5451-9.4335 6.098-18.545 11.453-23.792 3.1989-1.8552 6.4787-4.295 8.1749-7.0567 0.98468 1.6472 2.7717 3.097 4.8201 4.2803 2.4448 1.4122 5.3072 2.415 8.0593 2.6607 9.8103 0.87569 16.627-6.7351 16.967-15.347 0.24941-6.3143-4.442-12.705-10.913-15.502-1.6177-0.69918-3.371-1.1743-5.1672-1.3496-0.67358-0.06577-1.3566-0.09638-2.0437-0.07712zm-0.57842 1.4653c2.5114-0.16571 4.941 0.34667 7.1724 1.3111 5.9502 2.5718 10.282 8.554 10.064 14.075-0.31114 7.878-6.3457 14.763-15.347 13.959-2.4845-0.22178-5.2173-1.1604-7.4808-2.4679-2.2636-1.3075-4.0686-2.9879-4.6659-4.5116l-0.11562 0.0386c0.85145-1.8606 1.3111-3.8783 1.3111-6.0155 0-3.4467-1.202-6.6438-3.2777-9.2547 3.9152-4.7646 8.2216-6.8621 12.34-7.1338zm-27.378 1.7352c9.3838 0 16.851 6.6062 16.851 14.653 0 8.047-7.4674 14.653-16.851 14.653-9.3838 0-16.89-6.6062-16.89-14.653 0-8.047 7.506-14.653 16.89-14.653zm24.718 11.915c-2.1297 0-3.8561 1.6005-3.8561 3.5476s1.7264 3.509 3.8561 3.509 3.8561-1.5619 3.8561-3.509-1.7264-3.5476-3.8561-3.5476zm-17.391 0.46273c-2.1297 0-3.8561 1.5619-3.8561 3.5091 0 1.9471 1.7264 3.5091 3.8561 3.5091s3.8561-1.5619 3.8561-3.5091c0-1.9471-1.7264-3.5091-3.8561-3.5091zm-70.104 12.185s0.24119 0.0161 0.77122 0.19281c0.53004 0.17668 1.3024 0.50281 2.1209 1.1954 1.637 1.3852 3.5797 4.1951 4.5502 9.9102 2.0336-3.6932-3.0566-14.155-7.4423-11.298zm153.09-0.30849c-4.6697 1.9362-6.5702 4.5979-7.2109 6.8253-0.64075 2.2274-0.0386 4.0104-0.0386 4.0104 0.85101-5.4827 4.1913-8.1294 7.2495-10.836zm-52.559 89.654s0.51588 0.76544 1.4653 1.6967c-7.2289 5.1139-17.734 5.8717-26.569 5.2443-9.2245-0.65499-16.581-2.7764-16.581-2.7764 2.6132 2.7582 15.048 4.1706 16.466 4.2803 9.1064 0.64659 20.082-0.098 27.803-5.7456 0.90239 0.6991 2.0152 1.3552 3.3548 1.7738-2.285-2.6668-3.8392-3.79-5.9384-4.4731zm-7.0181 14.383c-3.3661 6.085-18.513 3.0267-21.324 4.4345 2.1453 0.76611 19.594 2.9534 21.324-4.4345zm4.0103 23.445c-0.27303 2.4878-0.11031 5.9914 0.26994 10.219 0.46128 5.1285 1.2969 11.233 2.1594 17.391-5.8686 7.203-13.077 8.6955-20.013 7.7122-6.7673-0.95935-13.129-4.325-17.275-7.0952 6.5948-11.924 4.6493-23.519 3.4705-28.072 5.1402 1.2211 10.704 2.0509 16.774 2.3522h0.0386 0.0386c4.8735-0.29218 9.7556-1.1095 14.538-2.5065z"
          sodipodi:nodetypes="ccccccccscccccscccsscssccccscccscsccsccscsscccscccsssccccsscccssccssssccsscsscccccsccsscccccscccsccccscccccccccccccccscsccccsccsccscccccccccscccscccccccssccccccscsssccccccsscssccccccsccscccssscscccccsccsccssssccccssssccscccsssssssssssscssccscccsscccscccccccccscccccccccccc"
          style="block-progression:tb;text-indent:0;color:#000000;text-transform:none;fill:#000000"
          inkscape:connector-curvature="0"
      />
      <path
          id="path2996"
          d="m148.75 221.79s17.321 1.7857 20-3.75c-2.1429 7.3214-8.3929 11.607-20 3.75z"
          style="fill:#fccb8d"
          inkscape:connector-curvature="0"
      />
      <path
          id="path3020"
          d="m143.66 102.63s-1.2054 4.7321 4.1071 4.2411c-2.8572 2.0536-6.8304-0.84821-4.1071-4.2411z"
          sodipodi:nodetypes="ccc"
          style="fill:#ffffff"
          inkscape:connector-curvature="0"
      />
      <path
          id="path3022"
          sodipodi:nodetypes="ccc"
          style="fill:#ffffff"
          inkscape:connector-curvature="0"
          d="m160.96 102.51s-1.2054 4.7321 4.1071 4.2411c-2.8572 2.0536-6.8304-0.84821-4.1071-4.2411z"
      />
    </g
    >
  </g
  >
  <metadata
    >
    <rdf:RDF
      >
      <cc:Work
        >
        <dc:format
          >image/svg+xml</dc:format
        >
        <dc:type
            rdf:resource="http://purl.org/dc/dcmitype/StillImage"
        />
        <cc:license
            rdf:resource="http://creativecommons.org/licenses/publicdomain/"
        />
        <dc:publisher
          >
          <cc:Agent
              rdf:about="http://openclipart.org/"
            >
            <dc:title
              >Openclipart</dc:title
            >
          </cc:Agent
          >
        </dc:publisher
        >
      </cc:Work
      >
      <cc:License
          rdf:about="http://creativecommons.org/licenses/publicdomain/"
        >
        <cc:permits
            rdf:resource="http://creativecommons.org/ns#Reproduction"
        />
        <cc:permits
            rdf:resource="http://creativecommons.org/ns#Distribution"
        />
        <cc:permits
            rdf:resource="http://creativecommons.org/ns#DerivativeWorks"
        />
      </cc:License
      >
    </rdf:RDF
    >
  </metadata
  >
</svg
>
