<?xml version="1.0" encoding="UTF-8"?>
<!DOCTYPE svg PUBLIC "-//W3C//DTD SVG 1.1//EN" "http://www.w3.org/Graphics/SVG/1.1/DTD/svg11.dtd">
<svg version="1.1" xmlns="http://www.w3.org/2000/svg" xmlns:xlink="http://www.w3.org/1999/xlink" x="0" y="0" width="973" height="903" viewBox="0, 0, 973, 903">
  <g id="Layer_1">
    <path d="M486.381,900.56 C708.821,900.56 890.244,869.105 890.244,830.531 C890.244,791.964 708.821,760.508 486.381,760.508 C263.94,760.508 82.515,791.964 82.515,830.531 C82.515,869.105 263.94,900.56 486.381,900.56" fill="#E5E5E0"/>
    <path d="M482.631,262.734 C544.539,322.97 583.719,412.007 583.719,511.349 C583.719,692.792 453.051,839.873 291.857,839.873 C130.667,839.873 0,692.792 0,511.349 C0,412.007 39.175,322.97 101.087,262.734 C143.558,221.408 168.235,173.762 177.473,115.231 C186.224,59.791 226.657,-33.199 291.857,16.927 C357.057,-33.199 397.49,59.791 406.241,115.231 C415.482,173.762 440.156,221.408 482.631,262.734" fill="#9FB83B"/>
    <path d="M482.631,262.734 C544.539,322.97 583.719,412.007 583.719,511.349 C583.719,692.792 453.051,839.873 291.857,839.873 C230.846,839.873 174.214,818.788 127.38,782.754 C143.996,786.014 161.254,787.727 179.027,787.727 C339.219,787.727 480.545,649.453 494.682,478.879 C502.422,385.487 470.426,301.788 413.592,245.16 C374.604,206.309 384.871,162.869 380.249,107.843 C378.162,82.963 368.328,41.125 351.151,9.301 C381.572,27.578 400.566,79.286 406.241,115.231 C415.482,173.762 440.156,221.408 482.631,262.734" fill="#8CA43D"/>
    <path d="M342.652,267.377 C374.371,302.226 390.988,353.732 384.234,411.204 C371.904,516.171 286.313,601.259 193.066,601.259 C99.812,601.259 34.215,516.171 46.546,411.204 C53.299,353.732 82.015,302.226 121.925,267.377 C149.306,243.471 166.818,215.908 176.142,182.045 C184.97,149.973 201.416,75.852 248.992,75.852 C296.569,75.852 307.191,149.973 308.485,182.045 C309.85,215.908 320.89,243.471 342.652,267.377" fill="#B2CF38"/>
    <path d="M295.165,463.415 C318.239,463.415 337.056,427.296 337.056,383.011 C337.056,338.726 318.239,302.607 295.165,302.607 C272.095,302.607 253.278,338.726 253.278,383.011 C253.278,427.296 272.095,463.415 295.165,463.415" fill="#EAEEAB"/>
    <path d="M519.48,608.678 C522.094,608.678 524.213,610.797 524.213,613.407 C524.213,616.017 522.094,618.135 519.48,618.135 C516.871,618.135 514.752,616.017 514.752,613.407 C514.752,610.797 516.871,608.678 519.48,608.678 z M467.455,623.541 C472.683,623.541 476.916,627.779 476.916,632.998 C476.916,638.226 472.683,642.459 467.455,642.459 C462.231,642.459 457.998,638.226 457.998,632.998 C457.998,627.779 462.231,623.541 467.455,623.541 z M481.645,651.92 C484.632,651.92 487.051,654.339 487.051,657.327 C487.051,660.31 484.632,662.729 481.645,662.729 C478.661,662.729 476.242,660.31 476.242,657.327 C476.242,654.339 478.661,651.92 481.645,651.92 z M477.59,686.379 C480.204,686.379 482.322,688.498 482.322,691.108 C482.322,693.717 480.204,695.836 477.59,695.836 C474.98,695.836 472.861,693.717 472.861,691.108 C472.861,688.498 474.98,686.379 477.59,686.379 z M435.025,719.483 C438.76,719.483 441.783,722.51 441.783,726.241 C441.783,729.97 438.76,732.998 435.025,732.998 C431.296,732.998 428.271,729.97 428.271,726.241 C428.271,722.51 431.296,719.483 435.025,719.483 z M417.459,743.133 C415.223,743.133 413.404,744.948 413.404,747.188 C413.404,749.424 415.223,751.239 417.459,751.239 C419.7,751.239 421.514,749.424 421.514,747.188 C421.514,744.948 419.7,743.133 417.459,743.133 z M377.599,749.891 C379.461,749.891 380.976,751.401 380.976,753.268 C380.976,755.135 379.461,756.645 377.599,756.645 C375.731,756.645 374.218,755.135 374.218,753.268 C374.218,751.401 375.731,749.891 377.599,749.891 z M336.719,765.428 C340.266,765.428 343.14,768.301 343.14,771.849 C343.14,775.392 340.266,778.266 336.719,778.266 C333.175,778.266 330.302,775.392 330.302,771.849 C330.302,768.301 333.175,765.428 336.719,765.428 z M320.841,790.426 C323.454,790.426 325.573,792.544 325.573,795.155 C325.573,797.768 323.454,799.887 320.841,799.887 C318.23,799.887 316.112,797.768 316.112,795.155 C316.112,792.544 318.23,790.426 320.841,790.426 z M375.906,707.323 C379.08,707.323 381.649,709.896 381.649,713.066 C381.649,716.236 379.08,718.809 375.906,718.809 C372.736,718.809 370.163,716.236 370.163,713.066 C370.163,709.896 372.736,707.323 375.906,707.323 z M427.594,677.596 C430.955,677.596 433.674,680.316 433.674,683.676 C433.674,687.033 430.955,689.756 427.594,689.756 C424.237,689.756 421.514,687.033 421.514,683.676 C421.514,680.316 424.237,677.596 427.594,677.596 z M397.189,628.274 C400.92,628.274 403.943,631.293 403.943,635.028 C403.943,638.762 400.92,641.786 397.189,641.786 C393.456,641.786 390.432,638.762 390.432,635.028 C390.432,631.293 393.456,628.274 397.189,628.274 z M443.472,578.274 C446.269,578.274 448.537,580.543 448.537,583.339 C448.537,586.136 446.269,588.409 443.472,588.409 C440.672,588.409 438.402,586.136 438.402,583.339 C438.402,580.543 440.672,578.274 443.472,578.274 z M496.171,585.032 C499.719,585.032 502.592,587.906 502.592,591.449 C502.592,594.993 499.719,597.866 496.171,597.866 C492.628,597.866 489.754,594.993 489.754,591.449 C489.754,587.906 492.628,585.032 496.171,585.032 z M538.402,515.441 C542.879,515.441 546.508,519.069 546.508,523.546 C546.508,528.023 542.879,531.651 538.402,531.651 C533.922,531.651 530.293,528.023 530.293,523.546 C530.293,519.069 533.922,515.441 538.402,515.441 z M565.767,483.007 C568.937,483.007 571.51,485.58 571.51,488.75 C571.51,491.924 568.937,494.494 565.767,494.494 C562.593,494.494 560.023,491.924 560.023,488.75 C560.023,485.58 562.593,483.007 565.767,483.007 z M559.683,548.543 C563.229,548.543 566.104,551.417 566.104,554.965 C566.104,558.508 563.229,561.381 559.683,561.381 C556.139,561.381 553.266,558.508 553.266,554.965 C553.266,551.417 556.139,548.543 559.683,548.543 z M556.643,585.705 C560.377,585.705 563.4,588.73 563.4,592.459 C563.4,596.194 560.377,599.217 556.643,599.217 C552.912,599.217 549.889,596.194 549.889,592.459 C549.889,588.73 552.912,585.705 556.643,585.705 z M534.685,637.057 C538.975,637.057 542.453,640.532 542.453,644.826 C542.453,649.116 538.975,652.594 534.685,652.594 C530.395,652.594 526.916,649.116 526.916,644.826 C526.916,640.532 530.395,637.057 534.685,637.057 z M515.767,673.538 C518.937,673.538 521.51,676.111 521.51,679.285 C521.51,682.455 518.937,685.024 515.767,685.024 C512.593,685.024 510.023,682.455 510.023,679.285 C510.023,676.111 512.593,673.538 515.767,673.538 z M513.063,635.702 C516.233,635.702 518.807,638.275 518.807,641.449 C518.807,644.619 516.233,647.188 513.063,647.188 C509.894,647.188 507.32,644.619 507.32,641.449 C507.32,638.275 509.894,635.702 513.063,635.702 z M494.823,615.432 C496.126,615.432 497.186,616.496 497.186,617.798 C497.186,619.106 496.126,620.164 494.823,620.164 C493.517,620.164 492.457,619.106 492.457,617.798 C492.457,616.496 493.517,615.432 494.823,615.432 z M502.251,548.543 C503.932,548.543 505.291,549.908 505.291,551.588 C505.291,553.264 503.932,554.623 502.251,554.623 C500.574,554.623 499.211,553.264 499.211,551.588 C499.211,549.908 500.574,548.543 502.251,548.543 z M510.36,505.302 C512.041,505.302 513.4,506.665 513.4,508.346 C513.4,510.022 512.041,511.382 510.36,511.382 C508.68,511.382 507.32,510.022 507.32,508.346 C507.32,506.665 508.68,505.302 510.36,505.302 z M526.238,473.546 C527.732,473.546 528.941,474.755 528.941,476.249 C528.941,477.743 527.732,478.953 526.238,478.953 C524.749,478.953 523.535,477.743 523.535,476.249 C523.535,474.755 524.749,473.546 526.238,473.546 z M480.293,714.08 C481.413,714.08 482.322,714.986 482.322,716.106 C482.322,717.226 481.413,718.135 480.293,718.135 C479.177,718.135 478.268,717.226 478.268,716.106 C478.268,714.986 479.177,714.08 480.293,714.08 z M455.973,749.891 C458.583,749.891 460.701,752.005 460.701,754.616 C460.701,757.229 458.583,759.348 455.973,759.348 C453.359,759.348 451.244,757.229 451.244,754.616 C451.244,752.005 453.359,749.891 455.973,749.891 z M409.014,773.538 C411.066,773.538 412.73,775.202 412.73,777.255 C412.73,779.305 411.066,780.969 409.014,780.969 C406.964,780.969 405.3,779.305 405.3,777.255 C405.3,775.202 406.964,773.538 409.014,773.538 z M373.881,786.372 C377.051,786.372 379.624,788.944 379.624,792.119 C379.624,795.288 377.051,797.858 373.881,797.858 C370.707,797.858 368.138,795.288 368.138,792.119 C368.138,788.944 370.707,786.372 373.881,786.372 z M345.165,810.022 C348.152,810.022 350.571,812.445 350.571,815.428 C350.571,818.411 348.152,820.83 345.165,820.83 C342.178,820.83 339.759,818.411 339.759,815.428 C339.759,812.445 342.178,810.022 345.165,810.022 z M260.373,787.727 C257.946,787.727 255.981,789.691 255.981,792.119 C255.981,794.541 257.946,796.51 260.373,796.51 C262.796,796.51 264.761,794.541 264.761,792.119 C264.761,789.691 262.796,787.727 260.373,787.727 z M226.925,747.862 C231.032,747.862 234.36,751.19 234.36,755.293 C234.36,759.397 231.032,762.725 226.925,762.725 C222.821,762.725 219.493,759.397 219.493,755.293 C219.493,751.19 222.821,747.862 226.925,747.862 z M165.779,730.969 C168.576,730.969 170.85,733.242 170.85,736.038 C170.85,738.834 168.576,741.104 165.779,741.104 C162.983,741.104 160.71,738.834 160.71,736.038 C160.71,733.242 162.983,730.969 165.779,730.969 z M132.336,752.594 C134.198,752.594 135.717,754.104 135.717,755.971 C135.717,757.834 134.198,759.348 132.336,759.348 C130.473,759.348 128.959,757.834 128.959,755.971 C128.959,754.104 130.473,752.594 132.336,752.594 z M168.52,772.186 C174.323,772.186 179.027,776.89 179.027,782.694 C179.027,788.497 174.323,793.202 168.52,793.202 C162.716,793.202 158.007,788.497 158.007,782.694 C158.007,776.89 162.716,772.186 168.52,772.186 z M200.575,760.022 C205.426,760.022 209.358,763.958 209.358,768.805 C209.358,773.659 205.426,777.588 200.575,777.588 C195.726,777.588 191.792,773.659 191.792,768.805 C191.792,763.958 195.726,760.022 200.575,760.022 z M216.453,795.159 C220.743,795.159 224.226,798.637 224.226,802.926 C224.226,807.217 220.743,810.7 216.453,810.7 C212.163,810.7 208.685,807.217 208.685,802.926 C208.685,798.637 212.163,795.159 216.453,795.159 z M245.323,781.001 C248.222,781.001 250.575,783.351 250.575,786.249 C250.575,789.151 248.222,791.501 245.323,791.501 C242.421,791.501 240.071,789.151 240.071,786.249 C240.071,783.351 242.421,781.001 245.323,781.001 z M281.653,742.455 C284.268,742.455 286.386,744.574 286.386,747.188 C286.386,749.797 284.268,751.916 281.653,751.916 C279.044,751.916 276.925,749.797 276.925,747.188 C276.925,744.574 279.044,742.455 281.653,742.455 z M303.871,745.832 C308.307,745.832 311.903,749.428 311.903,753.865 C311.903,758.3 308.307,761.897 303.871,761.897 C299.438,761.897 295.843,758.3 295.843,753.865 C295.843,749.428 299.438,745.832 303.871,745.832 z M333.398,731.643 C336.228,731.643 338.521,733.94 338.521,736.773 C338.521,739.598 336.228,741.895 333.398,741.895 C330.569,741.895 328.272,739.598 328.272,736.773 C328.272,733.94 330.569,731.643 333.398,731.643 z M362.058,743.133 C363.92,743.133 365.435,744.647 365.435,746.51 C365.435,748.372 363.92,749.887 362.058,749.887 C360.19,749.887 358.677,748.372 358.677,746.51 C358.677,744.647 360.19,743.133 362.058,743.133 z M271.353,792.119 C274.989,792.119 277.939,795.065 277.939,798.705 C277.939,802.342 274.989,805.293 271.353,805.293 C267.712,805.293 264.761,802.342 264.761,798.705 C264.761,795.065 267.712,792.119 271.353,792.119 z M297.868,776.914 C299.735,776.914 301.245,778.424 301.245,780.291 C301.245,782.158 299.735,783.668 297.868,783.668 C296.005,783.668 294.491,782.158 294.491,780.291 C294.491,778.424 296.005,776.914 297.868,776.914 z M293.14,817.454 C296.5,817.454 299.22,820.176 299.22,823.533 C299.22,826.894 296.5,829.613 293.14,829.613 C289.783,829.613 287.06,826.894 287.06,823.533 C287.06,820.176 289.783,817.454 293.14,817.454 z M240.1,811.373 C242.9,811.373 245.169,813.642 245.169,816.438 C245.169,819.239 242.9,821.508 240.1,821.508 C237.303,821.508 235.034,819.239 235.034,816.438 C235.034,813.642 237.303,811.373 240.1,811.373 z M260.71,751.916 C265.187,751.916 268.815,755.544 268.815,760.022 C268.815,764.502 265.187,768.131 260.71,768.131 C256.233,768.131 252.601,764.502 252.601,760.022 C252.601,755.544 256.233,751.916 260.71,751.916 z M286.723,726.241 C289.893,726.241 292.466,728.814 292.466,731.984 C292.466,735.158 289.893,737.727 286.723,737.727 C283.549,737.727 280.979,735.158 280.979,731.984 C280.979,728.814 283.549,726.241 286.723,726.241 z M320.167,715.432 C321.287,715.432 322.192,716.337 322.192,717.457 C322.192,718.578 321.287,719.483 320.167,719.483 C319.047,719.483 318.142,718.578 318.142,717.457 C318.142,716.337 319.047,715.432 320.167,715.432 z M354.963,690.43 C356.639,690.43 358.003,691.793 358.003,693.474 C358.003,695.151 356.639,696.51 354.963,696.51 C353.282,696.51 351.923,695.151 351.923,693.474 C351.923,691.793 353.282,690.43 354.963,690.43 z M384.353,662.055 C385.846,662.055 387.056,663.265 387.056,664.758 C387.056,666.248 385.846,667.457 384.353,667.457 C382.862,667.457 381.649,666.248 381.649,664.758 C381.649,663.265 382.862,662.055 384.353,662.055 z M399.557,687.053 C403.1,687.053 405.973,689.926 405.973,693.474 C405.973,697.017 403.1,699.891 399.557,699.891 C396.009,699.891 393.135,697.017 393.135,693.474 C393.135,689.926 396.009,687.053 399.557,687.053 z M401.582,724.889 C402.889,724.889 403.948,725.949 403.948,727.255 C403.948,728.558 402.889,729.622 401.582,729.622 C400.274,729.622 399.22,728.558 399.22,727.255 C399.22,725.949 400.274,724.889 401.582,724.889 z M427.594,632.998 C433.564,632.998 438.402,637.84 438.402,643.811 C438.402,649.782 433.564,654.62 427.594,654.62 C421.624,654.62 416.785,649.782 416.785,643.811 C416.785,637.84 421.624,632.998 427.594,632.998 z M450.229,666.784 C453.026,666.784 455.295,669.052 455.295,671.849 C455.295,674.65 453.026,676.918 450.229,676.918 C447.43,676.918 445.16,674.65 445.16,671.849 C445.16,669.052 447.43,666.784 450.229,666.784 z M455.632,699.213 C458.433,699.213 460.701,701.486 460.701,704.283 C460.701,707.079 458.433,709.352 455.632,709.352 C452.836,709.352 450.566,707.079 450.566,704.283 C450.566,701.486 452.836,699.213 455.632,699.213 z M466.781,728.944 C470.143,728.944 472.861,731.667 472.861,735.024 C472.861,738.38 470.143,741.104 466.781,741.104 C463.425,741.104 460.701,738.38 460.701,735.024 C460.701,731.667 463.425,728.944 466.781,728.944 z M516.104,554.623 C520.207,554.623 523.535,557.952 523.535,562.059 C523.535,566.163 520.207,569.491 516.104,569.491 C512,569.491 508.672,566.163 508.672,562.059 C508.672,557.952 512,554.623 516.104,554.623" fill="#79903C"/>
    <path d="M871.676,273.546 C933.584,333.779 972.763,422.816 972.763,522.162 C972.763,703.596 842.091,850.686 680.901,850.686 C519.712,850.686 389.04,703.596 389.04,522.162 C389.04,422.816 428.219,333.779 490.127,273.546 C532.603,232.22 557.279,184.571 566.518,126.035 C575.268,70.6 615.701,-22.39 680.901,27.74 C746.102,-22.39 786.535,70.6 795.285,126.035 C804.527,184.571 829.2,232.22 871.676,273.546" fill="#B2CF38"/>
    <path d="M664.15,49.528 C657.981,44.786 648.902,39.113 640.703,41.442 C625.252,45.833 611.817,72.362 606.257,85.87 C600.485,99.884 596.033,115.344 593.671,130.321 C583.512,194.672 555.989,247.814 509.297,293.247 C447.993,352.891 416.525,437.281 416.525,522.162 C416.525,636.919 475.894,753.329 583.32,802.005 C614.09,815.952 647.104,823.201 680.901,823.201 C714.699,823.201 747.713,815.952 778.486,802.005 C885.913,753.329 945.277,636.919 945.277,522.162 C945.277,437.281 913.81,352.891 852.506,293.247 C805.813,247.814 778.291,194.672 768.137,130.321 C765.771,115.344 761.321,99.884 755.55,85.87 C749.985,72.362 736.555,45.833 721.1,41.442 C712.904,39.113 703.825,44.786 697.656,49.528 L680.901,62.41 L664.15,49.528" fill="#F8C823"/>
    <path d="M656.387,59.625 C654.357,58.067 647.052,52.884 644.186,53.699 C634.133,56.557 621.736,81.73 618.035,90.719 C612.588,103.943 608.48,118.181 606.253,132.31 C595.672,199.329 566.81,255.063 518.182,302.375 C459.358,359.609 429.267,440.723 429.267,522.162 C429.267,631.899 485.769,743.819 588.577,790.402 C617.67,803.584 648.951,810.463 680.901,810.463 C712.852,810.463 744.133,803.584 773.227,790.402 C876.034,743.819 932.536,631.899 932.536,522.162 C932.536,440.723 902.449,359.609 843.625,302.375 C794.993,255.063 766.131,199.329 755.555,132.31 C753.322,118.181 749.215,103.943 743.771,90.719 C740.066,81.73 727.671,56.557 717.617,53.699 C714.752,52.884 707.449,58.067 705.42,59.625 L680.901,78.479 L656.387,59.625" fill="#E8A52D"/>
    <path d="M564.788,777.99 C572.415,782.524 580.346,786.671 588.577,790.402 C617.67,803.584 648.951,810.463 680.901,810.463 C712.852,810.463 744.133,803.584 773.227,790.402 C876.034,743.819 932.536,631.899 932.536,522.162 C932.536,440.723 902.449,359.609 843.625,302.375 C794.993,255.063 766.131,199.329 755.555,132.31 C754.438,125.244 752.852,118.153 750.866,111.171 C753.257,174.724 742.359,251.402 785.212,296.268 C837.042,350.534 857.222,427.447 847.274,504.661 C833.864,608.719 763.692,714.839 655.193,759.011 C625.889,770.94 595.294,777.425 564.788,777.99" fill="#E2942E"/>
    <path d="M680.901,170.56 C688.552,170.56 695.33,213.132 699.503,278.596 C702.169,320.417 714.69,355.647 739.011,389.773 C752.101,408.135 761.618,429.866 767.316,446.694 C774.951,469.228 780.316,494.721 780.316,518.582 C780.316,544.558 773.607,570.733 759.719,592.8 C747.988,611.447 731.157,626.918 710.466,634.756 C700.684,638.461 694.153,646.575 692.627,656.925 C689.193,680.162 685.184,693.515 680.901,693.515 C676.619,693.515 672.609,680.162 669.18,656.925 C667.649,646.575 661.123,638.461 651.338,634.756 C630.646,626.918 613.814,611.447 602.084,592.8 C588.199,570.737 581.49,544.558 581.49,518.582 C581.49,494.721 586.852,469.228 594.486,446.694 C600.188,429.866 609.707,408.135 622.792,389.773 C647.116,355.647 659.634,320.417 662.3,278.596 C666.473,213.132 673.251,170.56 680.901,170.56" fill="#FAD64E"/>
    <path d="M680.901,362.502 C730.207,362.502 770.178,457.01 770.178,518.582 C770.178,580.154 730.207,630.068 680.901,630.068 C631.596,630.068 591.625,580.154 591.625,518.582 C591.625,457.01 631.596,362.502 680.901,362.502" fill="#6E2F20"/>
    <path d="M680.901,362.502 C730.207,362.502 770.178,457.01 770.178,518.582 C770.178,580.154 730.207,630.068 680.901,630.068 C631.596,630.068 591.625,580.154 591.625,518.582 C591.625,457.01 631.596,362.502 680.901,362.502" fill="#6E2F20"/>
    <path d="M670,371.184 C699.904,371.184 718.896,428.502 715.474,465.842 C712.057,503.183 685.041,533.457 655.141,533.457 C625.235,533.457 603.765,503.183 607.187,465.842 C610.604,428.502 640.095,371.184 670,371.184" fill="#95432A"/>
    <path d="M751.154,432.674 C763.071,460.793 770.178,492.619 770.178,518.582 C770.178,580.154 730.207,630.068 680.901,630.068 C639.434,630.068 604.572,594.761 594.535,546.904 C610.348,578.198 638.272,598.991 670.093,598.991 C719.398,598.991 759.369,549.076 759.369,487.504 C759.369,470.802 756.423,451.677 751.154,432.674" fill="#4D2619"/>
  </g>
</svg>
